{
  "units": [
    {
      "base": "°C",
      "conversions": {
        "DE": {
          "unit": "°C",
          "formula": "*1"
        },
        "EN": {
          "unit": "°F",
          "formula": "*1.8+32"
        }
      }
    },
    {
      "base": "km",
      "conversions": {
        "DE": {
          "unit": "km",
          "formula": "*1"
        },
        "EN": {
          "unit": "miles",
          "formula": "*0,621371"
        }
      }
    },
    {
      "base": "km/h",
      "conversions": {
        "DE": {
          "unit": "km/h",
          "formula": "*1"
        },
        "EN": {
          "unit": "miles/h",
          "formula": "*0,621371"
        }
      }
    },
    {
      "base": "l/100km",
      "conversions": {
        "DE": {
          "unit": "l/100km",
          "formula": "*1"
        },
        "EN": {
          "unit": "l/100miles",
          "formula": "*0,621371"
        }
      }
    },
    {
      "base": "Tag",
      "conversions": {
        "DE": {
          "unit": "Tag",
          "formula": "*1"
        },
        "EN": {
          "unit": "day",
          "formula": "*1"
        }
      }
    },
    {
      "base": "Monat",
      "conversions": {
        "DE": {
          "unit": "Monat",
          "formula": "*1"
        },
        "EN": {
          "unit": "Month",
          "formula": "*1"
        }
      }
    },
    {
      "base": "Jahr",
      "conversions": {
        "DE": {
          "unit": "Jahr",
          "formula": "*1"
        },
        "EN": {
          "unit": "Year",
          "formula": "*1"
        }
      }
    },
    {
      "base": "s",
      "conversions": {
        "DE": {
          "unit": "s",
          "formula": "*1"
        },
        "EN": {
          "unit": "s",
          "formula": "*1"
        }
      }
    },
    {
      "base": "min",
      "conversions": {
        "DE": {
          "unit": "min",
          "formula": "*1"
        },
        "EN": {
          "unit": "min",
          "formula": "*1"
        }
      }
    },
    {
      "base": "h",
      "conversions": {
        "DE": {
          "unit": "h",
          "formula": "*1"
        },
        "EN": {
          "unit": "h",
          "formula": "*1"
        }
      }
    },
    {
      "base": "bar",
      "conversions": {
        "DE": {
          "unit": "bar",
          "formula": "*1"
        },
        "EN": {
          "unit": "bar",
          "formula": "*1"
        }
      }
    },
    {
      "base": "%",
      "conversions": {
        "DE": {
          "unit": "%",
          "formula": "*1"
        },
        "EN": {
          "unit": "%",
          "formula": "*1"
        }
      }
    },
    {
      "base": "m/s²",
      "conversions": {
        "DE": {
          "unit": "m/s²",
          "formula": "*1"
        },
        "EN": {
          "unit": "yd/s²",
          "formula": "*0,9144"
        }
      }
    },
    {
      "base": "°",
      "conversions": {
        "DE": {
          "unit": "°",
          "formula": "*1"
        },
        "EN": {
          "unit": "°",
          "formula": "*1"
        }
      }
    },
    {
      "base": "Tage",
      "conversions": {
        "DE": {
          "unit": "Tage",
          "formula": "*1"
        },
        "EN": {
          "unit": "days",
          "formula": "*1"
        }
      }
    },
    {
      "base": "V",
      "conversions": {
        "DE": {
          "unit": "V",
          "formula": "*1"
        },
        "EN": {
          "unit": "V",
          "formula": "*1"
        }
      }
    }
  ]
}
